{
  "docs": {
    "Docusaurus": [
      "doc1"
    ],
    "First Category": [
      "doc2"
    ],
    "Second Category": [
      "doc3"
    ]
  },
  "docs-other": {
    "First Category": [
      "doc4",
      "doc5"
    ]
  },
  "docs-api": {
    "UNCATEGORIZED": [
      "Migrations",
      "erc20_ERC20",
      "ownable_Ownable",
      "safemath_SafeMath"
    ]
  }
}